## Interface: 80000
## Title: Monk by Nikopol
## Notes: Rotations for Dark Addon
## LoadOnDemand: 0
## DefaultState: enabled
## Dependencies: dark_addon

s6w8yzhrjvgmr2b8.lua
asnpf4rc5wq854j4.lua
svu4zTbyCqe8f38u.lua
fUtUcVfs876cdNMs.lua